[
   {
      "selling":3.8123,
      "update_date":1520715598,
      "currency":1,
      "buying":3.8101,
      "change_rate":-0.26162258326138,
      "name":"amerikan-dolari",
      "full_name":"Amerikan Dolar\u0131",
      "code":"USD"
   },
   {
      "selling":4.6921,
      "update_date":1520715598,
      "currency":2,
      "buying":4.6908,
      "change_rate":-0.39167400834297,
      "name":"euro",
      "full_name":"Euro",
      "code":"EUR"
   },
   {
      "selling":5.2801,
      "update_date":1520715597,
      "currency":3,
      "buying":5.2779,
      "change_rate":-0.092715231788082,
      "name":"sterlin",
      "full_name":"\u0130ngiliz Sterlini",
      "code":"GBP"
   },
   {
      "selling":4.0083061718011,
      "update_date":1520715598,
      "currency":7,
      "buying":4.0055719091674,
      "change_rate":0.0052567944067702,
      "name":"isvicre-frangi",
      "full_name":"\u0130svi\u00e7re Frang\u0131",
      "code":"CHF"
   },
   {
      "selling":2.9746410736579,
      "update_date":1520715594,
      "currency":4,
      "buying":2.9726925177499,
      "change_rate":-0.61644632264567,
      "name":"kanada-dolari",
      "full_name":"Kanada Dolar\u0131",
      "code":"CAD"
   },
   {
      "selling":0.067298051122723,
      "update_date":1520715598,
      "currency":12,
      "buying":0.067223021075011,
      "change_rate":-0.69469995619799,
      "name":"rus-rublesi",
      "full_name":"Rus Rublesi",
      "code":"RUB"
   },
   {
      "selling":1.0381232470114,
      "update_date":1520715018,
      "currency":10,
      "buying":1.0373829231104,
      "change_rate":0.0068072592612725,
      "name":"birlesik-arap-emirlikleri-dirhemi",
      "full_name":"B.A.E. Dirhemi",
      "code":"AED"
   },
   {
      "selling":2.99074935,
      "update_date":1520715598,
      "currency":11,
      "buying":2.9909285,
      "change_rate":-0.7579617834395,
      "name":"avustralya-dolari",
      "full_name":"Avustralya Dolar\u0131",
      "code":"AUD"
   },
   {
      "selling":0.62981992400463,
      "update_date":1520715598,
      "currency":5,
      "buying":0.62941487428553,
      "change_rate":0.079357206626318,
      "name":"danimarka-kronu",
      "full_name":"Danimarka Kronu",
      "code":"DKK"
   },
   {
      "selling":0.46257917344141,
      "update_date":1520715598,
      "currency":6,
      "buying":0.46219445623825,
      "change_rate":-0.28607198369452,
      "name":"isvec-kronu",
      "full_name":"\u0130sve\u00e7 Kronu",
      "code":"SEK"
   },
   {
      "selling":0.49047937627049,
      "update_date":1520715598,
      "currency":8,
      "buying":0.48977414420321,
      "change_rate":-0.78752207931336,
      "name":"norvec-kronu",
      "full_name":"Norve\u00e7 Kronu",
      "code":"NOK"
   },
   {
      "selling":3.5693687620546,
      "update_date":1520715598,
      "currency":9,
      "buying":3.5668414154653,
      "change_rate":0.52559017141674,
      "name":"japon-yeni",
      "full_name":"100 Japon Yeni",
      "code":"JPY"
   },
   {
      "selling":12.694971694972,
      "update_date":1520708348,
      "currency":13,
      "buying":12.679201331115,
      "change_rate":-0.033266799733862,
      "name":"kuveyt-dinari",
      "full_name":"Kuveyt Dinar\u0131",
      "code":"KWD"
   },
   {
      "selling":0.32247231879277,
      "update_date":1520715595,
      "currency":14,
      "buying":0.32192677836641,
      "change_rate":-0.68224157897387,
      "name":"guney-afrika-randi",
      "full_name":"G\u00fcney Afrika Rand\u0131",
      "code":"ZAR"
   },
   {
      "selling":10.120254844704,
      "update_date":1520715019,
      "currency":15,
      "buying":10.109047492704,
      "change_rate":0,
      "name":"bahreyn-dinari",
      "full_name":"Bahreyn Dinar\u0131",
      "code":"BHD"
   },
   {
      "selling":2.8689795304034,
      "update_date":1520715018,
      "currency":16,
      "buying":2.8522982482408,
      "change_rate":0.26270359528635,
      "name":"libya-dinari",
      "full_name":"Libya Dinar\u0131",
      "code":"LYD"
   },
   {
      "selling":1.0166133333333,
      "update_date":1520715018,
      "currency":17,
      "buying":1.0158912145047,
      "change_rate":0.006666222251858,
      "name":"suudi-arabistan-riyali",
      "full_name":"S. Arabistan Riyali",
      "code":"SAR"
   },
   {
      "selling":0.003219847972973,
      "update_date":1520715017,
      "currency":18,
      "buying":0.003212563237774,
      "change_rate":0.084388185654008,
      "name":"irak-dinari",
      "full_name":"Irak Dinar\u0131",
      "code":"IQD"
   },
   {
      "selling":1.1083234002965,
      "update_date":1520715555,
      "currency":20,
      "buying":1.1044728527118,
      "change_rate":-0.38118340119553,
      "name":"israil-sekeli",
      "full_name":"\u0130srail \u015eekeli",
      "code":"ILS"
   },
   {
      "selling":0.00010182425213675,
      "update_date":1520715019,
      "currency":19,
      "buying":0.00010162976793812,
      "change_rate":0.066728947017216,
      "name":"iran-riyali",
      "full_name":"\u0130ran Riyali",
      "code":"IRR"
   },
   {
      "selling":0.058676857864497,
      "update_date":1520711701,
      "currency":21,
      "buying":0.058633972031868,
      "change_rate":-0.19030796405807,
      "name":"hindistan-rupisi",
      "full_name":"Hindistan Rupisi",
      "code":"INR"
   },
   {
      "selling":0.20459607262267,
      "update_date":1520715598,
      "currency":22,
      "buying":0.20444289432029,
      "change_rate":0.1007103436237,
      "name":"meksika-pesosu",
      "full_name":"Meksika Pesosu",
      "code":"MXN"
   },
   {
      "selling":0.015061830824543,
      "update_date":1520715596,
      "currency":23,
      "buying":0.015041253799692,
      "change_rate":0.0592510665192,
      "name":"macar-forinti",
      "full_name":"Macar Forinti",
      "code":"HUF"
   },
   {
      "selling":2.7798599970833,
      "update_date":1520715479,
      "currency":24,
      "buying":2.7762314194113,
      "change_rate":-0.33405954974582,
      "name":"yeni-zelanda-dolari",
      "full_name":"Yeni Zelanda Dolar\u0131",
      "code":"NZD"
   },
   {
      "selling":1.1712135176651,
      "update_date":1520715598,
      "currency":25,
      "buying":1.1698906902481,
      "change_rate":-0.24198241798633,
      "name":"brezilya-reali",
      "full_name":"Brezilya Reali",
      "code":"BRL"
   },
   {
      "selling":0.00027671481454598,
      "update_date":1520715021,
      "currency":26,
      "buying":0.00027635453688257,
      "change_rate":0.01088099815023,
      "name":"endonezya-rupiahi",
      "full_name":"Endonezya Rupiahi",
      "code":"IDR"
   },
   {
      "selling":0.18426343924908,
      "update_date":1520715598,
      "currency":27,
      "buying":0.18393484725602,
      "change_rate":0.39500021809829,
      "name":"cek-korunasi",
      "full_name":"\u00c7ek Korunas\u0131",
      "code":"CSK"
   },
   {
      "selling":1.1193880846816,
      "update_date":1520715598,
      "currency":28,
      "buying":1.11801989495,
      "change_rate":-0.18452346084002,
      "name":"polonya-zlotisi",
      "full_name":"Polonya Zlotisi",
      "code":"PLN"
   },
   {
      "selling":1.5292319619,
      "update_date":1438174813,
      "currency":29,
      "buying":1.52108539945,
      "change_rate":-0.20618556701,
      "name":"bulgar-levasi",
      "full_name":"Bulgar Levas\u0131",
      "code":"BGN"
   },
   {
      "selling":1.0076652657733,
      "update_date":1520715594,
      "currency":30,
      "buying":1.0057545600929,
      "change_rate":0.1917456791103,
      "name":"romen-leyi",
      "full_name":"Romanya Leyi",
      "code":"RON"
   },
   {
      "selling":0.60241135200051,
      "update_date":1520715019,
      "currency":31,
      "buying":0.60196859101969,
      "change_rate":-0.15616866215513,
      "name":"cin-yuani",
      "full_name":"\u00c7in Yuan\u0131",
      "code":"CNY"
   },
   {
      "selling":0.18855037341115,
      "update_date":1520715018,
      "currency":32,
      "buying":0.18839497626582,
      "change_rate":-0.528736197526,
      "name":"arjantin-pesosu",
      "full_name":"Arjantin Pesosu",
      "code":"ARS"
   },
   {
      "selling":0.035745897796531,
      "update_date":1520703690,
      "currency":33,
      "buying":0.035409851301115,
      "change_rate":0.27958993476235,
      "name":"arnavutluk-leki",
      "full_name":"Arnavutluk Leki",
      "code":"ALL"
   },
   {
      "selling":2.2431891732863,
      "update_date":1520748008,
      "currency":34,
      "buying":2.2405763010879,
      "change_rate":0.02352802776307,
      "name":"azerbaycan-manati",
      "full_name":"Azerbaycan Manat\u0131",
      "code":"AZN"
   },
   {
      "selling":2.3957141959404,
      "update_date":1520714099,
      "currency":35,
      "buying":2.39057598193,
      "change_rate":0.053360118020027,
      "name":"bosna-hersek-marki",
      "full_name":"Bosna-Hersek Mark\u0131",
      "code":"BAM"
   },
   {
      "selling":0.00018748751248751,
      "update_date":1517146041,
      "currency":36,
      "buying":0.00018714392616613,
      "change_rate":0.062398602271309,
      "name":"belarus-rublesi",
      "full_name":"Belarus Rublesi",
      "code":"BYR"
   },
   {
      "selling":0.0063325138699711,
      "update_date":1520712504,
      "currency":37,
      "buying":0.0063240273536051,
      "change_rate":-0.61529832896191,
      "name":"sili-pesosu",
      "full_name":"\u015eili Pesosu",
      "code":"CLP"
   },
   {
      "selling":0.0013307386204971,
      "update_date":1520715020,
      "currency":38,
      "buying":0.001329042835217,
      "change_rate":-0.31988873435326,
      "name":"kolombiya-pesosu",
      "full_name":"Kolombiya Pesosu",
      "code":"COP"
   },
   {
      "selling":0.0067337278106509,
      "update_date":1520715203,
      "currency":39,
      "buying":0.0066130347999653,
      "change_rate":1.011606297556,
      "name":"kostarika-kolonu",
      "full_name":"Kostarika Kolonu",
      "code":"CRC"
   },
   {
      "selling":0.033438001596337,
      "update_date":1520715575,
      "currency":40,
      "buying":0.032842575273034,
      "change_rate":1.0038482299883,
      "name":"cezayir-dinari",
      "full_name":"Cezayir Dinar\u0131",
      "code":"DZD"
   },
   {
      "selling":0.21682354613963,
      "update_date":1520715019,
      "currency":41,
      "buying":0.21590026915994,
      "change_rate":0.18450184501846,
      "name":"misir-lirasi",
      "full_name":"M\u0131s\u0131r Liras\u0131",
      "code":"EGP"
   },
   {
      "selling":0.486455103421,
      "update_date":1520715598,
      "currency":42,
      "buying":0.48613716108453,
      "change_rate":-0.056108851171266,
      "name":"hong-kong-dolari",
      "full_name":"Hong Kong Dolar\u0131",
      "code":"HKD"
   },
   {
      "selling":0.63650783050055,
      "update_date":1520756881,
      "currency":43,
      "buying":0.63508017468414,
      "change_rate":0.17699706118086,
      "name":"hirvat-kunasi",
      "full_name":"H\u0131rvat Kunas\u0131",
      "code":"HRK"
   },
   {
      "selling":0.03820322677623,
      "update_date":1520703712,
      "currency":44,
      "buying":0.038066739934059,
      "change_rate":0.38613911037561,
      "name":"izlanda-kronasi",
      "full_name":"\u0130zlanda Kronas\u0131",
      "code":"ISK"
   },
   {
      "selling":5.3884098939929,
      "update_date":1520715019,
      "currency":45,
      "buying":5.3739069111425,
      "change_rate":-0.035248501938679,
      "name":"urdun-dinari",
      "full_name":"\u00dcrd\u00fcn Dinar\u0131",
      "code":"JOD"
   },
   {
      "selling":0.0035771053248886,
      "update_date":1520700488,
      "currency":46,
      "buying":0.0035683446499649,
      "change_rate":-0.58193668528864,
      "name":"guney-kore-wonu",
      "full_name":"G\u00fcney Kore Wonu",
      "code":"KRW"
   },
   {
      "selling":0.011885210125951,
      "update_date":1520715194,
      "currency":47,
      "buying":0.011876500109099,
      "change_rate":0.0077933818601173,
      "name":"kazak-tengesi",
      "full_name":"Kazak Tengesi",
      "code":"KZT"
   },
   {
      "selling":0.002524701986755,
      "update_date":1520715263,
      "currency":48,
      "buying":0.0025116018457482,
      "change_rate":0.53015241882041,
      "name":"lubnan-lirasi",
      "full_name":"L\u00fcbnan Liras\u0131",
      "code":"LBP"
   },
   {
      "selling":0.024532175032175,
      "update_date":1520767980,
      "currency":49,
      "buying":0.024486503856041,
      "change_rate":0.11259449895447,
      "name":"sri-lanka-rupisi",
      "full_name":"Sri Lanka Rupisi",
      "code":"LKR"
   },
   {
      "selling":0.976009878285,
      "update_date":1438151715,
      "currency":50,
      "buying":0.974000352299,
      "change_rate":-0.539612460142,
      "name":"litvanya-litasi",
      "full_name":"Litvanya Litas\u0131",
      "code":"LTL"
   },
   {
      "selling":5.43639228043,
      "update_date":1438117198,
      "currency":51,
      "buying":5.40113547377,
      "change_rate":-2.05177372963,
      "name":"letonya-latsi",
      "full_name":"Letonya Lats\u0131",
      "code":"LVL"
   },
   {
      "selling":0.41473656726972,
      "update_date":1520715592,
      "currency":52,
      "buying":0.41404679366666,
      "change_rate":0.04022438684989,
      "name":"fas-dirhemi",
      "full_name":"Fas Dirhemi",
      "code":"MAD"
   },
   {
      "selling":0.23036437246964,
      "update_date":1520715019,
      "currency":53,
      "buying":0.22884857949426,
      "change_rate":0.29518072289156,
      "name":"moldova-leusu",
      "full_name":"Moldovya Leusu",
      "code":"MDL"
   },
   {
      "selling":0.076629145728643,
      "update_date":1520715490,
      "currency":54,
      "buying":0.076125874125874,
      "change_rate":0.34081796311146,
      "name":"makedon-dinari",
      "full_name":"Makedon Dinar\u0131",
      "code":"MKD"
   },
   {
      "selling":0.97501278772379,
      "update_date":1520707566,
      "currency":55,
      "buying":0.97320561941252,
      "change_rate":0.14068295178412,
      "name":"malezya-ringgiti",
      "full_name":"Malezya Ringgiti",
      "code":"MYR"
   },
   {
      "selling":9.9072245322245,
      "update_date":1520714710,
      "currency":56,
      "buying":9.8963636363636,
      "change_rate":0.025980774227069,
      "name":"umman-riyali",
      "full_name":"Umman Riyali",
      "code":"OMR"
   },
   {
      "selling":1.1715734480639,
      "update_date":1520715299,
      "currency":57,
      "buying":1.1673100490196,
      "change_rate":0.18416206261509,
      "name":"peru-inti",
      "full_name":"Peru \u0130nti",
      "code":"PEN"
   },
   {
      "selling":0.07345472061657,
      "update_date":1520715018,
      "currency":58,
      "buying":0.073341674687199,
      "change_rate":-0.39305915060876,
      "name":"filipinler-pesosu",
      "full_name":"Filipinler Pesosu",
      "code":"PHP"
   },
   {
      "selling":0.034509821671042,
      "update_date":1520715018,
      "currency":59,
      "buying":0.034427577482606,
      "change_rate":0.13572204125951,
      "name":"pakistan-rupisi",
      "full_name":"Pakistan Rupisi",
      "code":"PKR"
   },
   {
      "selling":1.0473927138854,
      "update_date":1520715019,
      "currency":60,
      "buying":1.0465007690617,
      "change_rate":0.013735131719918,
      "name":"katar-riyali",
      "full_name":"Katar Riyali",
      "code":"QAR"
   },
   {
      "selling":0.039912016214813,
      "update_date":1520757021,
      "currency":61,
      "buying":0.039650378177671,
      "change_rate":-0.062920619138897,
      "name":"sirbistan-dinari",
      "full_name":"S\u0131rbistan Dinar\u0131",
      "code":"RSD"
   },
   {
      "selling":2.8975450330622,
      "update_date":1520715593,
      "currency":62,
      "buying":2.8954327836462,
      "change_rate":-0.10627799286418,
      "name":"singapur-dolari",
      "full_name":"Singapur Dolar\u0131",
      "code":"SGD"
   },
   {
      "selling":0.00740281175968,
      "update_date":1520713647,
      "currency":63,
      "buying":0.0073913633894622,
      "change_rate":0.048522019292355,
      "name":"suriye-lirasi",
      "full_name":"Suriye Liras\u0131",
      "code":"SYP"
   },
   {
      "selling":0.12179872204473,
      "update_date":1520715596,
      "currency":64,
      "buying":0.12153429027113,
      "change_rate":-0.047824007651832,
      "name":"tayland-bahti",
      "full_name":"Tayland Baht\u0131",
      "code":"THB"
   },
   {
      "selling":0.13040191551223,
      "update_date":1520715568,
      "currency":65,
      "buying":0.1301975123018,
      "change_rate":-0.38804547620669,
      "name":"yeni-tayvan-dolari",
      "full_name":"Yeni Tayvan Dolar\u0131",
      "code":"TWD"
   },
   {
      "selling":0.14612111920276,
      "update_date":1520715194,
      "currency":66,
      "buying":0.14465072133637,
      "change_rate":0.4768262445165,
      "name":"ukrayna-grivnasi",
      "full_name":"Ukrayna Grivnas\u0131",
      "code":"UAH"
   },
   {
      "selling":0.13471024734982,
      "update_date":1520715018,
      "currency":67,
      "buying":0.13415845070423,
      "change_rate":0.24708789269326,
      "name":"uruguay-pesosu",
      "full_name":"Uruguay Pesosu",
      "code":"UYU"
   }
]